- 1
( 2
) 3
a 4
A 5
à 6
abonnement 7
abonnements 8
abord 9
abréger 10
absences 11
absolument 12
académique 13
accès 14
accompagnateur 15
accompagnateurs 16
accompagné 17
accord 18
accorder 19
achats 20
achète 21
acheté 22
achètent 23
acheter 24
actif 25
activer 26
activité 27
activités 28
actuellement 29
adapté 30
administrations 31
adresse 32
adultes 33
aéroport 34
Aéroport 35
aéroports 36
aéroportuaire 37
affaires 38
Affaires 39
affichage 40
affiché 41
affichettes 42
âge 43
agence 44
agenda 45
agent 46
Agent 47
agents 48
agissait 49
agrandit 50
ah 51
ai 52
aider 53
aïe 54
aille 55
ailleurs 56
aimable 57
aimé 58
aimerais 59
aimerait 60
air 61
Air 62
ait 63
Albatrans 64
Albert 65
algécos 66
Alger 67
allaient 68
allais 69
allait 70
allant 71
allé 72
allée 73
aller 74
allés 75
allez 76
alliez 77
allo 78
allons 79
Alma 80
alors 81
Alouettes 82
Am 83
amabilité 84
Ambroise 85
amen 86
amende 87
amendes 88
amené 89
amener 90
amie 91
AMTUIR 92
an 93
Anatole 94
ancienne 95
anciennes 96
André 97
angle 98
Angleterre 99
année 100
années 101
annoncé 102
ans 103
Ant 104
antérieurement 105
Antony 106
appareil 107
appareils 108
apparemment 109
apparentes 110
appartient 111
appel 112
appelé 113
appeler 114
appelez 115
appelle 116
appels 117
appliquez 118
appris 119
approximatifs 120
approximative 121
après 122
après-midi 123
archi 124
argent 125
argumentaire 126
Aristide 127
armée 128
arobase 129
arr 130
arranger 131
arrêt 132
arrête 133
arrêté 134
arrêtent 135
arrêter 136
arrêts 137
arrière 138
arrivais 139
arrivant 140
arrive 141
arrivé 142
arrivée 143
arrivent 144
arriver 145
arriverez 146
arrivez 147
arrivons 148
arrondissement 149
as 150
Assas 151
Assemblée 152
assermenté 153
assez 154
association 155
assoit 156
assurer 157
at 158
attendais 159
attendait 160
attendant 161
attendez 162
attendre 163
attends 164
attendu 165
attente 166
attention 167
au 168
aucun 169
aucune 170
au-delà 171
au-dessus 172
Audra 173
augmenté 174
aujourd' 175
auparavant 176
auprès 177
aura 178
aurai 179
auraient 180
aurais 181
aurait 182
aurez 183
auriez 184
aussi 185
Austerlitz 186
Auteuil 187
autobus 188
automate 189
automatique 190
automatiquement 191
autour 192
autre 193
autrement 194
autres 195
aux 196
avaient 197
avais 198
avait 199
avance 200
avant 201
avant-hier 202
avec 203
avenue 204
avez 205
aviez 206
avion 207
avis 208
avoir 209
avons 210
ay 211
ayant 212
ayez 213
b 214
B 215
Baconnets 216
bague 217
bah 218
Ballancourt 219
bancaires 220
banlieue 221
bas 222
base 223
Basset 224
Bastille 225
bâtiments 226
bazar 227
beaucoup 228
Bécon-les-Bruyères 229
beige 230
belle 231
Belle 232
Belleville 233
Bellini 234
ben 235
bénéficiant 236
bénéficier 237
Bercy 238
Bernard 239
Berny 240
besoin 241
bêtement 242
bêtises 243
BFM 244
biais 245
bibliothèque 246
Bibliothèque 247
Bicêtre 248
biche 249
bien 250
bientôt 251
bijoux 252
billet 253
billets 254
billetterie 255
Bineau 256
Bir-Hakeim 257
blanc 258
blancs 259
bleu 260
bleue 261
bleus 262
Blum 263
Bobée 264
Bois-Perrier 265
Boisseau 266
Boissy 267
boîte 268
bon 269
bondé 270
Bondy 271
bonjour 272
bonne 273
bons 274
bord 275
bordel 276
borne 277
bosse 278
bossent 279
bosser 280
bottin 281
bouches 282
bouchon 283
bouchons 284
bouge 285
boulevard 286
Boulogne 287
Boulogne-Billancourt 288
Bourg-la-Reine 289
bouscule 290
bout 291
bouteille 292
boutique 293
Bouton 294
branche 295
bref 296
Briand 297
bricole 298
briefing 299
budget 300
bulletin 301
bureau 302
bureaux 303
bus 304
Bus 305
c 306
c' 307
C 308
ça 309
Cachan 310
cache 311
cadeau 312
cadre 313
caillou 314
calcul 315
calme 316
campagne 317
Canada 318
car 319
cardinal 320
carnet 321
carnets 322
carrée 323
carrées 324
carrefour 325
carrément 326
carrés 327
cars 328
cartable 329
carte 330
cartes 331
cartonnage 332
cartouches 333
cas 334
case 335
cas-là 336
cassé 337
casse-croûte 338
cassée 339
catastrophe 340
cause 341
ce 342
ceci 343
cedex 344
cela 345
celle 346
celle-là 347
celui 348
celui-là 349
cent 350
centaine 351
centre 352
Centre 353
cents 354
cercle 355
cercles 356
Cergy 357
certain 358
certainement 359
certains 360
certitudes 361
ces 362
c'est 363
cet 364
cette 365
ceux 366
ch 367
Chailly 368
Chailly-en-Brie 369
Champerret 370
Champigny 371
Champigny-Saint-Maur 372
Champigny-sur-Marne 373
Champs-Élysées 374
chances 375
change 376
changé 377
changeant 378
changement 379
changer 380
chanson 381
Chanter 382
Chanteraines 383
chaque 384
charge 385
chargé 386
chargée 387
chargement 388
chargent 389
charger 390
Charles 391
Charonne 392
Chasseneuil 393
Châtelet 394
Châtelet-Les 395
chauffeur 396
chauffeurs 397
chaussures 398
Chavaux 399
chef 400
Chelles 401
Chelles-Gournay 402
Chemin 403
chèque 404
cher 405
cherchais 406
cherchant 407
cherche 408
chercher 409
chez 410
chiffre 411
Chilly 412
Chilly-Mazarin 413
choisissez 414
Choissy 415
Choisy-le-Roi 416
choix 417
chômeurs 418
chose 419
choses 420
chouette 421
ciao 422
CIDFF 423
cin 424
cinq 425
cinquantaine 426
cinquante 427
cinquante-cinq 428
cinquante-huit 429
cinquante-neuf 430
cinquante-quatre 431
cinquante-trois 432
circulation 433
circulent 434
circuler 435
circulera 436
cité 437
citerai 438
clair 439
clairs 440
Clamart 441
Clarins 442
classe 443
classes 444
Clichy 445
Clichy-la-Garenne 446
Clichy-sous-Bois 447
client 448
cliente 449
clientèle 450
Clientèle 451
clients 452
Clients 453
Clignancourt 454
clinique 455
Clos 456
Cloud 457
club 458
co 459
cocher 460
cocotiers 461
collège 462
collégien 463
collègue 464
collez 465
Colombes 466
com 467
combien 468
combine 469
Commandant 470
commande 471
commandé 472
commander 473
commandes 474
commandez 475
comme 476
commence 477
commencé 478
commencent 479
comment 480
commercial 481
commerciale 482
commission 483
commun 484
commune 485
communication 486
communique 487
communiquer 488
communiquerai 489
compagnie 490
complet 491
compliqué 492
composant 493
composer 494
compréhensible 495
comprend 496
comprendre 497
comprends 498
compris 499
compte 500
compter 501
comptes 502
comptez 503
concentrique 504
concentriques 505
concernant 506
concerne 507
concerné 508
conçois 509
conducteur 510
conduite 511
confirmation 512
confirme 513
confisqué 514
connais 515
connaissance 516
connaissez 517
connaître 518
conseil 519
conseillé 520
conseiller 521
conseils 522
Considerant 523
constamment 524
constater 525
construisait 526
cont 527
contact 528
contacté 529
contacter 530
contenu 531
contester 532
continuation 533
continue 534
contrat 535
contraventions 536
contre 537
contrôle 538
contrôlée 539
contrôleur 540
contrôleurs 541
coordonnées 542
Coquetiers 543
correctement 544
correspond 545
correspondance 546
correspondances 547
correspondant 548
correspondent 549
Corsair 550
côté 551
couleur 552
couloir 553
Coulommiers 554
coup 555
coupé 556
couper 557
coupon 558
coups 559
cour 560
courage 561
courant 562
courrier 563
cours 564
course 565
courses 566
Courtilles 567
coûte 568
coutures 569
crachouille 570
crayon 571
crédit 572
créer 573
creuses 574
crois 575
croisement 576
croix 577
Croix 578
d 579
d' 580
D 581
dame 582
dans 583
date 584
Dauphine 585
de 586
débordée 587
débrouille 588
début 589
décembre 590
déchargement 591
déchargent 592
décharger 593
décidé 594
décision 595
déclaré 596
déclarée 597
déclarer 598
décolle 599
décompose 600
Découverte 601
dedans 602
Défense 603
définitif 604
déjà 605
déjeuner 606
délivrera 607
demain 608
demandait 609
demandant 610
demande 611
demandé 612
demandent 613
demander 614
demandeur 615
demandez 616
demi 617
demie 618
demi-heure 619
demi-heures 620
demi-tarif 621
Denfert 622
Denfert-Rochereau 623
départ 624
département 625
départemental 626
départementale 627
départements 628
départs 629
dépasse 630
dépassé 631
dépend 632
dépendre 633
dépensent 634
déplace 635
déplacement 636
déplacer 637
déplaciez 638
dépose 639
déposé 640
dépôt 641
depuis 642
déranger 643
dernier 644
dernière 645
dérouler 646
derrière 647
des 648
dès 649
descend 650
descendait 651
descendant 652
descende 653
descendez 654
descendre 655
descendrez 656
descends 657
descendue 658
désirais 659
désirerais 660
désolé 661
désolée 662
dessert 663
desserte 664
desservi 665
dessus 666
destination 667
détail 668
détaxe 669
détérioré 670
deux 671
deuxième 672
devais 673
devait 674
devant 675
devez 676
déviation 677
dévie 678
dévié 679
devient 680
devis 681
devoir 682
devrais 683
devrait 684
di 685
diamants 686
Diderot 687
Dieu 688
différent 689
différente 690
différents 691
difficile 692
dimanche 693
dimanches 694
Dion 695
diraient 696
dirais 697
dire 698
direct 699
directe 700
directement 701
direction 702
directs 703
dirigé 704
diriger 705
dis 706
disaient 707
disais 708
disant 709
dise 710
disons 711
disponible 712
disposait 713
dispose 714
disque 715
Distance 716
dit 717
dites 718
divorcés 719
dix 720
dix-huit 721
dix-neuf 722
dix-sept 723
dizaine 724
documentation 725
documents 726
dois 727
doit 728
doivent 729
domicile 730
domicilié 731
dommage 732
donc 733
donnais 734
donne 735
donné 736
données 737
donner 738
donnera 739
donnerai 740
donnez 741
dont 742
dos 743
dossier 744
dote 745
doute 746
douze 747
douzième 748
Drancy 749
drapeau 750
droit 751
droite 752
droits 753
du 754
dû 755
dure 756
duré 757
durée 758
e 759
E 760
é 761
Eastpak 762
eau 763
échange 764
éclair 765
école 766
économies 767
économiser 768
écoute 769
écoutez 770
écrire 771
écrit 772
écrite 773
Edgar 774
effectivement 775
effectuer 776
effet 777
efficace 778
également 779
égarée 780
église 781
Église 782
eh 783
élèves 784
elle 785
elle-même 786
elles 787
éloignée 788
ém 789
embêtant 790
embête 791
embêtés 792
emmène 793
emmener 794
empirer 795
emploi 796
employeur 797
emprunter 798
en 799
encore 800
endroit 801
endroits 802
enfant 803
enfants 804
enfin 805
enlevées 806
enlèvent 807
enlever 808
énormément 809
enquiquinant 810
enregistré 811
ensemble 812
ensuite 813
entendez 814
entends 815
entendu 816
entre 817
entrée 818
entreprise 819
entreprises 820
entrés 821
environ 822
envoie 823
envoyé 824
envoyée 825
envoyer 826
envoyez 827
Épine 828
épouvantable 829
épuisé 830
er 831
es 832
Escudier 833
espace 834
espèces 835
espérant 836
espère 837
espérons 838
essaye 839
essayé 840
essayer 841
essayez 842
Essor 843
essouffle 844
est 845
Est 846
est-à-dire 847
est-ce 848
est-ce-que 849
estimez 850
et 851
établir 852
établissement 853
établissements 854
étaient 855
étais 856
était 857
étant 858
etc 859
été 860
êtes 861
étiez 862
étranger 863
étrangère 864
étrangères 865
être 866
étroit 867
étudiant 868
étudiante 869
étudiants 870
étudié 871
étudiée 872
étui 873
eu 874
euh 875
euro 876
Europarc 877
Europe 878
euros 879
Eurostar 880
eux 881
éventuellement 882
évidemment 883
évident 884
évitant 885
évolué 886
exact 887
exactement 888
excellent 889
exceptionnel 890
excuse 891
excuser 892
excusez 893
exemplaire 894
exemplaires 895
exemple 896
existait 897
existe 898
expédie 899
expirait 900
explicatif 901
expliquant 902
explique 903
expliqué 904
expliquer 905
expliquez 906
extérieur 907
F 908
fa 909
fac 910
face 911
facile 912
façon 913
façons 914
facture 915
faim 916
fainéantise 917
faire 918
fais 919
faisait 920
faisant 921
fait 922
faite 923
faites 924
faits 925
fallait 926
falloir 927
fallu 928
fameux 929
familial 930
famille 931
Famille 932
familles 933
fantastique 934
fasse 935
faudra 936
faudrait 937
faut 938
faux 939
faxe 940
féminin 941
femme 942
fera 943
ferai 944
ferez 945
fermé 946
fermées 947
ferment 948
fermer 949
fermetures 950
feront 951
ferroviaire 952
fêtes 953
feuille 954
ff 955
fiable 956
fiche 957
fiches 958
fil 959
filé 960
fille 961
fils 962
fin 963
finalement 964
fini 965
finis 966
fixe 967
fléchages 968
flou 969
FNAC 970
fois 971
foncé 972
fonction 973
fonctionnait 974
fonctionne 975
fonctionné 976
fonctionnent 977
fonctionner 978
fond 979
font 980
Fontenay 981
Fontenay-le-Vicomte 982
Fontenaysien 983
Fontenay-sous-Bois 984
forcément 985
forfait 986
formation 987
forme 988
formulaire 989
fortes 990
fourche 991
fourni 992
fournir 993
fous 994
foutu 995
fr 996
France 997
franchement 998
François 999
Franklin 1000
frein 1001
Frêne 1002
fréquemment 1003
fréquences 1004
fréquent 1005
Fressange 1006
fringues 1007
fruits 1008
fur 1009
furieux 1010
Futuroscope 1011
futurs 1012
g 1013
G 1014
Gabriel 1015
gagner 1016
gains 1017
galère 1018
Gambetta 1019
garantir 1020
garde 1021
gardé 1022
garder 1023
gare 1024
Gare 1025
garer 1026
Garigliano 1027
gauche 1028
Gaulle 1029
général 1030
Général 1031
générale 1032
généralement 1033
genre 1034
gens 1035
gentil 1036
gentille 1037
Georges 1038
gère 1039
géré 1040
gèrent 1041
geste 1042
gestion 1043
glissé 1044
glisser 1045
global 1046
globalement 1047
Goncourt 1048
gonflés 1049
gouvernementale 1050
grand 1051
grand-chose 1052
grande 1053
grand-mère 1054
grands 1055
gratuit 1056
gratuitement 1057
grave 1058
grève 1059
grèves 1060
gris 1061
gros 1062
Groslay 1063
grosse 1064
grosses 1065
groupe 1066
groupes 1067
guère 1068
guichet 1069
guichetier 1070
guichets 1071
H 1072
habite 1073
habitez 1074
habitude 1075
Halles 1076
hallu 1077
han 1078
haut 1079
hauteur 1080
Hauts-de-Seine 1081
Havre-Caumartin 1082
hé 1083
hebdomadaire 1084
hebdomadaires 1085
hein 1086
Hérault 1087
heure 1088
heures 1089
hier 1090
histoire 1091
historique 1092
hm 1093
honnêtement 1094
honte 1095
hop 1096
hôpital 1097
Hôpital 1098
horaire 1099
horaires 1100
hors 1101
hou 1102
Houilles-Carrières 1103
HP 1104
hublot 1105
Hugo 1106
hui 1107
huit 1108
hum 1109
hyper 1110
i 1111
I 1112
ici 1113
idéal 1114
idée 1115
identité 1116
il 1117
-il 1118
Île 1119
Île-de-France 1120
illimité 1121
ils 1122
imagine 1123
Imagine 1124
immédiat 1125
immédiats 1126
impeccable 1127
importance 1128
important 1129
importantes 1130
importe 1131
impression 1132
imprimables 1133
imprimé 1134
imprimer 1135
imprimez 1136
incapacité 1137
incidents 1138
indiquant 1139
indique 1140
indiqué 1141
indiquée 1142
indiquer 1143
indulgence 1144
industrielle 1145
Inès 1146
infiniment 1147
information 1148
informations 1149
informée 1150
infos 1151
infraction 1152
infractions 1153
initiative 1154
inquiétais 1155
inquiétait 1156
inquiète 1157
inscription 1158
inscrit 1159
inscrite 1160
inspection 1161
instant 1162
int 1163
Intégrale 1164
intégrées 1165
interconnexion 1166
intéressait 1167
intéressant 1168
intérieur 1169
internes 1170
internet 1171
interrompu 1172
interruptions 1173
intersection 1174
Invalides 1175
inverse 1176
inversé 1177
iPod 1178
ira 1179
Italie 1180
itinéraire 1181
itinéraires 1182
Ivry 1183
j' 1184
jamais 1185
jambe 1186
jaune 1187
Jaurès 1188
je 1189
jean 1190
Jean 1191
jet 1192
jeu 1193
jeudi 1194
jeune 1195
jeunes 1196
jeunesse 1197
joindre 1198
Joinville 1199
jour 1200
journal 1201
journée 1202
jours 1203
jugement 1204
juillet 1205
juin 1206
Jules 1207
jusqu' 1208
jusque 1209
jusque-là 1210
Jussieu 1211
juste 1212
justement 1213
justifiant 1214
justificatif 1215
justificatifs 1216
justifier 1217
justifiez 1218
Juvisy 1219
k 1220
l 1221
l' 1222
L 1223
L' 1224
la 1225
La 1226
là 1227
là-bas 1228
lac 1229
LAC 1230
l'ai 1231
laisse 1232
laissé 1233
laissent 1234
laisser 1235
large 1236
largement 1237
LC 1238
le 1239
Le 1240
Ledru-Rollin 1241
légèrement 1242
Legris 1243
Léon 1244
lequel 1245
les 1246
Les 1247
lettres 1248
leur 1249
Levallois 1250
Levallois-Perret 1251
levé 1252
lien 1253
lieu 1254
ligne 1255
lignes 1256
Lilas 1257
limite 1258
liquide 1259
livraison 1260
livrons 1261
localisation 1262
logiciel 1263
loin 1264
Loire-Atlantique 1265
long 1266
longtemps 1267
longue 1268
lors 1269
lorsque 1270
lourds 1271
lui 1272
lui-même 1273
lundi 1274
lunettes 1275
lycée 1276
lycéen 1277
lycéens 1278
Lyon 1279
m 1280
m' 1281
M 1282
ma 1283
machine 1284
machiniste 1285
madame 1286
madeleine 1287
mademoiselle 1288
mai 1289
mail 1290
main 1291
maintenant 1292
mairie 1293
Mairie 1294
mairies 1295
mais 1296
maison 1297
majoré 1298
majorée 1299
mal 1300
malade 1301
Malakoff 1302
Malancourt 1303
Malesherbes 1304
malgré 1305
malheureusement 1306
maman 1307
manière 1308
manteau 1309
maquillage 1310
marathon 1311
marchait 1312
marchand 1313
marche 1314
marché 1315
marcher 1316
marchera 1317
mardi 1318
mari 1319
Marne-la-Vallée 1320
marque 1321
marqué 1322
marquée 1323
marquer 1324
Martinique 1325
mascara 1326
masculin 1327
Massy 1328
Massy-Palaiseau 1329
matelassé 1330
matelassée 1331
matériel 1332
matin 1333
matricule 1334
mauvais 1335
mauvaise 1336
mauve 1337
maxi 1338
maximum 1339
me 1340
mé 1341
médecin 1342
médicaments 1343
médicaux 1344
meilleures 1345
même 1346
mêmes 1347
Ménilmontant 1348
Ménilmontant-Pelleport 1349
Mennecy 1350
mensualité 1351
mensuels 1352
mention 1353
merci 1354
mercredi 1355
merde 1356
mes 1357
message 1358
messagerie 1359
messieurs 1360
mesure 1361
métal 1362
mètres 1363
métro 1364
Métro 1365
mets 1366
mettaient 1367
mettant 1368
mettez 1369
mettons 1370
mettre 1371
mettrez 1372
Micro-Fine 1373
midi 1374
mien 1375
mieux 1376
mignonne 1377
mille 1378
minimum 1379
Ministère 1380
minutes 1381
mis 1382
mise 1383
mises 1384
Mitry-Claye 1385
Mitterrand 1386
mo 1387
Mobilis 1388
modification 1389
moi 1390
-moi 1391
moi-même 1392
moins 1393
mois 1394
mois-ci 1395
moment 1396
moment-là 1397
moments 1398
mon 1399
monde 1400
Monge 1401
monsieur 1402
montant 1403
montants 1404
monter 1405
Montfermeil 1406
Montmartre 1407
Montparnasse 1408
montre 1409
Montretout 1410
Montreuil 1411
Montrouge 1412
moquer 1413
Morillons 1414
Morizet 1415
Mortillet 1416
mot 1417
mouais 1418
Mouchotte 1419
moui 1420
mouise 1421
mouvement 1422
mouvements 1423
moyen 1424
moyenne 1425
muette 1426
Muette 1427
municipal 1428
munir 1429
musée 1430
Musée 1431
Musso 1432
Mutualité 1433
n 1434
n' 1435
N 1436
nan 1437
Nanterre-Préfecture 1438
Nationale 1439
navette 1440
Navigo 1441
ne 1442
nécessaires 1443
neuf 1444
Neuilly 1445
Neuilly-Plaisance 1446
Neuilly-sur-Seine 1447
nez 1448
ni 1449
Nice 1450
Nike 1451
niveau 1452
NNAAMMEE 1453
NNUUMMBBEERR 1454
Nogent 1455
Nogent-Le 1456
Nogent-sur-Marne 1457
noir 1458
noire 1459
noires 1460
Noisy-le-Sec 1461
nom 1462
nombre 1463
noms 1464
non 1465
Nord 1466
normal 1467
normalement 1468
nos 1469
notamment 1470
note 1471
noté 1472
noter 1473
notés 1474
notre 1475
nourriture 1476
nous 1477
nouveau 1478
nouvelle 1479
nouvelles 1480
novembre 1481
nuit 1482
NULL 1483
numéro 1484
numéros 1485
O 1486
objets 1487
obligatoirement 1488
obligé 1489
obligée 1490
obtenir 1491
occasionnellement 1492
occupais 1493
occupe 1494
occupé 1495
occupent 1496
occupés 1497
octobre 1498
oh 1499
OK 1500
Olympiades 1501
on 1502
onglet 1503
ont 1504
onze 1505
onzième 1506
Opéra 1507
opérateur 1508
opération 1509
opposé 1510
opposition 1511
option 1512
or 1513
orange 1514
Orange 1515
oranges 1516
ordinateurs 1517
ordre 1518
Oréal 1519
org 1520
organise 1521
organiser 1522
Orléans 1523
Orly 1524
Orlybus 1525
Orlytech 1526
Orlyval 1527
Orsay 1528
OT 1529
ou 1530
où 1531
ouah 1532
ouais 1533
oublié 1534
ouest 1535
Ouest 1536
ouh 1537
oui 1538
ouvert 1539
ouverts 1540
p 1541
P 1542
pack 1543
paiement 1544
paire 1545
Palais 1546
panne 1547
papier 1548
papiers 1549
paquet 1550
par 1551
paraît 1552
Parapluies 1553
parc 1554
parce 1555
parcours 1556
pardon 1557
Paré 1558
pareil 1559
parfait 1560
Paris 1561
Paris-Bercy 1562
parisien 1563
parisienne 1564
parisiens 1565
parking 1566
parlais 1567
parle 1568
parlez 1569
parliez 1570
parole 1571
pars 1572
part 1573
partais 1574
partant 1575
parte 1576
partent 1577
partez 1578
parti 1579
particulier 1580
partie 1581
partir 1582
partout 1583
pas 1584
pas-perdus 1585
passage 1586
passait 1587
passant 1588
passe 1589
passé 1590
passée 1591
passent 1592
passeport 1593
passer 1594
passera 1595
passés 1596
passez 1597
patata 1598
patate 1599
patati 1600
patiente 1601
patienté 1602
patienter 1603
patientez 1604
pauvre 1605
pauvres 1606
payant 1607
paye 1608
payé 1609
payer 1610
peine 1611
pelé 1612
Pelleport 1613
pendant 1614
pensais 1615
pensait 1616
pense 1617
pensé 1618
pensent 1619
pensez 1620
pensons 1621
perdent 1622
perdez 1623
perdre 1624
perdu 1625
perdue 1626
perdues 1627
péremption 1628
Péri 1629
permet 1630
permis 1631
Perret 1632
Perreux 1633
Perreux-sur-Marne 1634
pers 1635
personne 1636
personnellement 1637
personnelles 1638
personnels 1639
personnes 1640
perte 1641
perturbations 1642
perturbé 1643
perturbés 1644
petit 1645
petite 1646
petits 1647
peu 1648
peur 1649
peut 1650
peut-être 1651
peuvent 1652
peux 1653
pff 1654
photo 1655
photocopie 1656
pièce 1657
pied 1658
piéger 1659
Pierrefitte-Stains 1660
pile 1661
pire 1662
pis 1663
pl 1664
place 1665
Place 1666
Plaine 1667
plaît 1668
plan 1669
plastifiée 1670
plastique 1671
platine 1672
plein 1673
Pleyel 1674
plupart 1675
plus 1676
plusieurs 1677
plutôt 1678
po 1679
poche 1680
poches 1681
poids 1682
point 1683
pointe 1684
points 1685
Poissy 1686
police 1687
pont 1688
Pont 1689
Port 1690
portables 1691
porte 1692
Porte 1693
porte-monnaie 1694
portes 1695
portillon 1696
portillons 1697
pose 1698
poser 1699
posera 1700
possède 1701
possession 1702
possibilité 1703
possible 1704
postal 1705
postale 1706
poste 1707
Poulmarch 1708
pour 1709
pourquoi 1710
pourraient 1711
pourrais 1712
pourrez 1713
pourriez 1714
pourront 1715
pourtant 1716
pouvaient 1717
pouvais 1718
pouvait 1719
pouvez 1720
pouvoir 1721
pratique 1722
pratiquer 1723
pre 1724
préavis 1725
précédentes 1726
préfecture 1727
préfère 1728
prélevé 1729
prélevée 1730
prélèvement 1731
prélèvements 1732
premier 1733
première 1734
premiers 1735
prenait 1736
prenant 1737
prend 1738
prendra 1739
prendrai 1740
prendrait 1741
prendre 1742
prendrez 1743
prends 1744
prenez 1745
preniez 1746
prenne 1747
prennent 1748
prénom 1749
prénommait 1750
préparer 1751
près 1752
présent 1753
présente 1754
présenté 1755
présentée 1756
présenter 1757
presque 1758
presse 1759
pressé 1760
prête 1761
prêté 1762
prévoir 1763
Prévoyants 1764
prévu 1765
prévue 1766
prie 1767
principe 1768
priori 1769
pris 1770
prise 1771
privé 1772
privés 1773
prix 1774
probable 1775
probablement 1776
problème 1777
problèmes 1778
procéder 1779
procédure 1780
procès-verbal 1781
prochain 1782
prochains 1783
proche 1784
procuration 1785
produit 1786
prof 1787
professionnel 1788
progressivement 1789
projets 1790
pronto 1791
propos 1792
propose 1793
proposer 1794
prouvant 1795
prouvent 1796
prouver 1797
province 1798
Province 1799
proximité 1800
pu 1801
Public 1802
puce 1803
puis 1804
puisqu' 1805
puisque 1806
puisse 1807
puissent 1808
pull 1809
putain 1810
Puteaux 1811
PV 1812
q 1813
qu 1814
qu' 1815
quai 1816
Quai 1817
quais 1818
quand 1819
quantité 1820
quarante 1821
quarante-cinq 1822
quarante-deux 1823
quarante-et-un 1824
quarante-et-unième 1825
quarante-quatre 1826
quarante-sept 1827
quarante-six 1828
quart 1829
quartier 1830
quatorze 1831
quatorzième 1832
quatre 1833
quatre-vingt-cinq 1834
quatre-vingt-dix 1835
quatre-vingt-dix-huit 1836
quatre-vingt-dix-neuf 1837
quatre-vingt-dix-sept 1838
quatre-vingt-douze 1839
quatre-vingt-neuf 1840
quatre-vingt-onze 1841
quatre-vingt-quatorze 1842
quatre-vingt-quatre 1843
quatre-vingt-quinze 1844
quatre-vingts 1845
quatre-vingt-seize 1846
quatre-vingt-six 1847
quatre-vingt-treize 1848
quatre-vingt-un 1849
que 1850
quel 1851
quelle 1852
quelqu' 1853
quelque 1854
quelquefois 1855
quelques 1856
quels 1857
question 1858
questions 1859
qui 1860
Quinet 1861
quinzaine 1862
quinze 1863
quitte 1864
quitté 1865
quitter 1866
quittez 1867
quoi 1868
r 1869
R 1870
ra 1871
raccroché 1872
râlaient 1873
rame 1874
ramène 1875
ramené 1876
Rapée 1877
rapide 1878
rapidement 1879
rappel 1880
rappelée 1881
rappeler 1882
rappelez 1883
rappelle 1884
rappellera 1885
rappellerai 1886
rappelons 1887
rapport 1888
rapporté 1889
rapprocherait 1890
ras 1891
ras-le-bol 1892
Raspail 1893
rat 1894
RATP 1895
re 1896
ré 1897
Réaumur 1898
Réaumur-Descartes 1899
Réaumur-Sébastopol 1900
recensé 1901
recevoir 1902
recevons 1903
rech 1904
rechar 1905
rechargé 1906
rechargée 1907
recharger 1908
rechargez 1909
recherche 1910
rechercher 1911
réclamation 1912
reçois 1913
reçoit 1914
récompense 1915
reconductible 1916
reconduit 1917
recours 1918
recouvrement 1919
rectangulaire 1920
rectifier 1921
reçu 1922
reçue 1923
reculer 1924
récupéré 1925
récupérer 1926
récupérez 1927
redescendre 1928
rediriger 1929
redonner 1930
réduction 1931
réduit 1932
réduits 1933
réel 1934
réengage 1935
réexplique 1936
refaire 1937
refais 1938
références 1939
refouler 1940
refusé 1941
regardais 1942
regardant 1943
regarde 1944
regardé 1945
regardent 1946
regarder 1947
regardez 1948
région 1949
régional 1950
règle 1951
réglé 1952
réglée 1953
réglementation 1954
régler 1955
régularité 1956
régulateur 1957
régulier 1958
rejoindre 1959
relance 1960
relation 1961
relevaient 1962
relevant 1963
relie 1964
remarquez 1965
rembourse 1966
remboursée 1967
remboursement 1968
remboursements 1969
remboursent 1970
rembourser 1971
remercie 1972
remettre 1973
remonte 1974
remonter 1975
rempli 1976
remplir 1977
Renault 1978
rend 1979
rendez 1980
rendez-vous 1981
rendre 1982
rends 1983
rendue 1984
Rennes-Raspail 1985
renouveler 1986
renouvellement 1987
renseigne 1988
renseignement 1989
renseignements 1990
renseigner 1991
rentrais 1992
rentrée 1993
rentrer 1994
renvoie 1995
renvoyer 1996
repart 1997
reparte 1998
repartent 1999
repartez 2000
repasse 2001
repasser 2002
repayer 2003
répète 2004
répété 2005
répéter 2006
répondent 2007
répondeurs 2008
répondre 2009
répondu 2010
réponse 2011
reporte 2012
reprend 2013
reprendre 2014
reprenez 2015
repris 2016
République 2017
RER 2018
réseau 2019
réservé 2020
respect 2021
respecté 2022
responsable 2023
reste 2024
resté 2025
restent 2026
restitué 2027
rétabli 2028
rétablie 2029
retard 2030
retéléphonerai 2031
retenir 2032
retirer 2033
retour 2034
retourner 2035
retraité 2036
retrouve 2037
retrouvé 2038
retrouvée 2039
retrouvées 2040
retrouver 2041
retrouvera 2042
Reuilly 2043
Reuilly-Diderot 2044
réunis 2045
réussi 2046
revenir 2047
revérifier 2048
reviendra 2049
revienne 2050
revient 2051
revoir 2052
revu 2053
RIB 2054
rien 2055
risque 2056
risquent 2057
Roissy 2058
Roissybus 2059
Rome 2060
Roosevelt 2061
Rosny 2062
roule 2063
roulent 2064
route 2065
Royal 2066
rue 2067
s 2068
s' 2069
S 2070
sa 2071
sac 2072
sachant 2073
sachet 2074
sacoche 2075
Saint 2076
Saint-Cloud 2077
Saint-Denis 2078
Saint-Denis-Université 2079
Saint-Germain 2080
Saint-Germain-en-Laye 2081
Saint-Lazare 2082
Saint-Maur 2083
Saint-Maur-Créteil 2084
Saint-Ouen 2085
Saint-Paul 2086
Saint-Rémy-lès-Chevreuse 2087
sais 2088
sait 2089
salle 2090
salut 2091
samedi 2092
sans 2093
Sanzillon 2094
sardines 2095
Sartrouville 2096
satellite 2097
sauf 2098
saurais 2099
saurez 2100
sauriez 2101
savais 2102
savent 2103
savez 2104
savoir 2105
scolaire 2106
scolaires 2107
se 2108
Sébastopol 2109
seconde 2110
secondes 2111
secrétariat 2112
secteur 2113
sein 2114
Seine 2115
Seine-Maritime 2116
Seine-Saint-Denis 2117
seize 2118
semaine 2119
semaines 2120
séminaire 2121
Sénat 2122
sens 2123
sept 2124
septembre 2125
sera 2126
serais 2127
serait 2128
seriez 2129
seringues 2130
seront 2131
serrés 2132
sers 2133
sert 2134
service 2135
Service 2136
services 2137
ses 2138
Sète 2139
seul 2140
seule 2141
seulement 2142
Sèvres 2143
si 2144
SIEL 2145
sienne 2146
siennes 2147
signalé 2148
signaler 2149
signe 2150
signification 2151
Silly 2152
Silly-Gallieni 2153
simple 2154
simplement 2155
sincèrement 2156
sinon 2157
site 2158
situation 2159
situe 2160
situé 2161
situer 2162
six 2163
smart 2164
SNCF 2165
social 2166
société 2167
soir 2168
soirée 2169
sois 2170
soit 2171
soixante 2172
soixante-deux 2173
soixante-dix 2174
soixante-dix-huit 2175
soixante-dix-neuf 2176
soixante-dix-sept 2177
soixante-douze 2178
soixante-et-un 2179
soixante-huit 2180
soixante-neuf 2181
soixante-quatorze 2182
soixante-quatre 2183
soixante-quinze 2184
soixante-seize 2185
soixante-sept 2186
soixante-treize 2187
soixante-trois 2188
solidarité 2189
Solidarité 2190
Soljenitsyne 2191
solution 2192
sommes 2193
son 2194
sont 2195
sortant 2196
sortez 2197
sortie 2198
sorties 2199
sortir 2200
sortis 2201
souci 2202
soucis 2203
souffle 2204
souhaite 2205
souhaitez 2206
sous 2207
souscrire 2208
souscrit 2209
souscrivez 2210
souvent 2211
spécial 2212
spéciale 2213
spécialité 2214
spécifique 2215
spectacle 2216
square 2217
ssis 2218
Stains 2219
station 2220
stationnait 2221
stationné 2222
stationner 2223
stations 2224
statut 2225
stipulé 2226
stop 2227
style 2228
su 2229
sud 2230
Sud 2231
suffisait 2232
suis 2233
suit 2234
suite 2235
suivant 2236
suivante 2237
suivez 2238
suivre 2239
sujet 2240
super 2241
supérieure 2242
support 2243
suppose 2244
supposé 2245
supprimé 2246
supprimée 2247
supprimées 2248
sur 2249
sûr 2250
sûre 2251
sûrement 2252
Suresnes 2253
surface 2254
surtout 2255
Survilliers 2256
Survilliers-Fosses 2257
suspendre 2258
suspension 2259
Sussis 2260
systématiquement 2261
système 2262
t 2263
t' 2264
T 2265
T3 2266
ta 2267
Taclet 2268
taille-crayon 2269
tamponner 2270
tandis 2271
tant 2272
taper 2273
tard 2274
tarif 2275
tarification 2276
tarifs 2277
taxe 2278
taxi 2279
tchao 2280
te 2281
télécharger 2282
Télégraphe 2283
téléphonais 2284
téléphone 2285
téléphoné 2286
téléphonent 2287
téléphoner 2288
tellement 2289
temps 2290
tenter 2291
terminal 2292
terminaux 2293
termine 2294
terminé 2295
terminée 2296
terminer 2297
terminus 2298
terracotta 2299
terre 2300
théâtre 2301
thermo 2302
thermos 2303
ti 2304
ticket 2305
tickets 2306
tient 2307
tiers 2308
t-il 2309
tiret 2310
titre 2311
titres 2312
titulaire 2313
to 2314
toi 2315
toile 2316
tombe 2317
tombée 2318
ton 2319
top 2320
tôt 2321
totale 2322
toujours 2323
tournent 2324
tous 2325
tout 2326
toute 2327
toutes 2328
tr 2329
trafic 2330
train 2331
trains 2332
traits 2333
trajet 2334
trajets 2335
tram 2336
tramway 2337
tranquille 2338
tranquilles 2339
transbordement 2340
transfère 2341
transféré 2342
transférée 2343
transférer 2344
Transilien 2345
transmis 2346
transport 2347
Transport 2348
transports 2349
travail 2350
travaille 2351
travaillé 2352
travaillent 2353
travailler 2354
travaillez 2355
traverser 2356
treize 2357
trente 2358
trente-cinq 2359
trente-deux 2360
trente-huit 2361
trente-neuf 2362
trente-sept 2363
trente-six 2364
trente-trois 2365
très 2366
Trésor 2367
tribunal 2368
trois 2369
troisième 2370
trompé 2371
trompée 2372
trop 2373
trotte 2374
trottoir 2375
trousse 2376
trouvais 2377
trouve 2378
trouvé 2379
trouvée 2380
trouver 2381
trouvés 2382
trouvez 2383
truc 2384
trucs 2385
tu 2386
TVM 2387
u 2388
U 2389
un 2390
une 2391
uniquement 2392
unité 2393
usage 2394
usager 2395
usagers 2396
utilisation 2397
utilisatrice 2398
utilise 2399
utilisé 2400
utiliser 2401
v 2402
V 2403
va 2404
vacances 2405
vachement 2406
vain 2407
vais 2408
Val 2409
valable 2410
valeur 2411
valide 2412
validé 2413
valider 2414
validité 2415
Vallès 2416
Vanves 2417
Vaugirard 2418
vaut 2419
veille 2420
Vélizy 2421
Vélizy-Villacoublay 2422
venant 2423
vendredi 2424
vendue 2425
venez 2426
venir 2427
vente 2428
verbalisation 2429
verbalisé 2430
verbalisée 2431
verbaliser 2432
Verdun 2433
vérifie 2434
vérifié 2435
vérifient 2436
vérifier 2437
verra 2438
verrez 2439
Verrières-le-Buisson 2440
vers 2441
Versailles 2442
Versailles-Chantiers 2443
vert 2444
verts 2445
veuillez 2446
veulent 2447
veut 2448
veux 2449
via 2450
Vicomte 2451
Victor 2452
vidé 2453
vieille 2454
viendra 2455
vienne 2456
viennent 2457
viens 2458
vient 2459
vieux 2460
Villacoublay 2461
ville 2462
Villeneuve 2463
Villeneuve-la-Garenne 2464
villes 2465
Villiers 2466
Vincennes 2467
vingt 2468
vingt-cinq 2469
vingt-deux 2470
vingt-et-un 2471
vingt-et-une 2472
vingt-huit 2473
vingtième 2474
vingt-neuf 2475
vingt-quatre 2476
vingt-sept 2477
vingt-six 2478
vingt-trois 2479
visite 2480
Visite 2481
visiter 2482
visites 2483
visités 2484
vitale 2485
Vitry 2486
vivable 2487
vo 2488
vocale 2489
voie 2490
voilà 2491
voir 2492
voire 2493
vois 2494
voit 2495
voiture 2496
voitures 2497
volé 2498
Voltaire 2499
Voltaire-Villiers 2500
vont 2501
vos 2502
votre 2503
vôtre 2504
voudrais 2505
voudrait 2506
voudriez 2507
voulais 2508
voulait 2509
voulez 2510
vouliez 2511
voulu 2512
vous 2513
vous-même 2514
voyage 2515
voyagé 2516
voyageait 2517
voyager 2518
voyages 2519
voyageur 2520
voyageurs 2521
voyageuse 2522
voyez 2523
vrai 2524
vraiment 2525
vu 2526
vue 2527
W 2528
Wissous 2529
y 2530
-y 2531
yeux 2532
Yvetot 2533
Z 2534
Zara 2535
zéro 2536
Zoé 2537
zone 2538
zones 2539
